…
The 'date' column in the dataset is of the class character. It is converted to the date class.


```r
data <- mutate(data, date = as.Date(date))
data
```

```
## # A tibble: 17,568 x 3
##    steps date       interval
##    <int> <date>        <int>
##  1    NA 2012-10-01        0
##  2    NA 2012-10-01        5
##  3    NA 2012-10-01       10
##  4    NA 2012-10-01       15
##  5    NA 2012-10-01       20
##  6    NA 2012-10-01       25
##  7    NA 2012-10-01       30
##  8    NA 2012-10-01       35
##  9    NA 2012-10-01       40
## 10    NA 2012-10-01       45
## # ... with 17,558 more rows
```

The original values of the dataset are stored in the table 'data'. Since it contains NA values in 
'steps' column observed in some days, a new table 'newdata' is created with the NA values removed.


```r
newdata <- na.omit(data)
newdata
```

```
## # A tibble: 15,264 x 3
##    steps date       interval
##    <int> <date>        <int>
##  1     0 2012-10-02        0
##  2     0 2012-10-02        5
##  3     0 2012-10-02       10
##  4     0 2012-10-02       15
##  5     0 2012-10-02       20
##  6     0 2012-10-02       25
##  7     0 2012-10-02       30
##  8     0 2012-10-02       35
##  9     0 2012-10-02       40
## 10     0 2012-10-02       45
## # ... with 15,254 more rows
```
…
```r
imputeddata <- as.data.frame(data)
for (i in 1 : nrow(imputeddata)) {
    if (is.na(imputeddata[i, 1])) {
        temp <- stepsperinterval[stepsperinterval$interval %in% imputeddata[i, 3], 2]
        imputeddata[i, 1] <- floor(temp)
    }
}
imputeddata <- tibble(imputeddata)
imputeddata$steps <- as.integer(imputeddata$steps)
imputeddata
```

```
## # A tibble: 17,568 x 3
##    steps date       interval
##    <int> <date>        <int>
##  1     1 2012-10-01        0
##  2     0 2012-10-01        5
##  3     0 2012-10-01       10
##  4     0 2012-10-01       15
##  5     0 2012-10-01       20
##  6     2 2012-10-01       25
##  7     0 2012-10-01       30
##  8     0 2012-10-01       35
##  9     0 2012-10-01       40
## 10     1 2012-10-01       45
## # ... with 17,558 more rows
```
…
```r
daysdata <- imputeddata
weekends <- c("Saturday", "Sunday")
daysdata$typeofday <- factor(weekdays(daysdata$date) %in% weekends, levels = c(FALSE, TRUE),
                             labels = c("Weekday", "Weekend"))
daysdata
```

```
## # A tibble: 17,568 x 4
##    steps date       interval typeofday
##    <int> <date>        <int> <fct>    
##  1     1 2012-10-01        0 Weekday  
##  2     0 2012-10-01        5 Weekday  
##  3     0 2012-10-01       10 Weekday  
##  4     0 2012-10-01       15 Weekday  
##  5     0 2012-10-01       20 Weekday  
##  6     2 2012-10-01       25 Weekday  
##  7     0 2012-10-01       30 Weekday  
##  8     0 2012-10-01       35 Weekday  
##  9     0 2012-10-01       40 Weekday  
## 10     1 2012-10-01       45 Weekday  
## # ... with 17,558 more rows
```
…
